[
    {
        "model": "app_staffing.organizationcountry",
        "pk": 1,
        "fields": {
            "name": "JP",
            "order": 1
        }
    },
    {
        "model": "app_staffing.organizationcountry",
        "pk": 2,
        "fields": {
            "name": "KR",
            "order": 2
        }
    },
    {
        "model": "app_staffing.organizationcountry",
        "pk": 3,
        "fields": {
            "name": "CN",
            "order": 3
        }
    },
    {
        "model": "app_staffing.organizationcountry",
        "pk": 4,
        "fields": {
            "name": "OTHER",
            "order": 4
        }
    }
]
