[
    {
        "model": "auth.group",
        "pk": 1,
        "fields": {
            "name": "admin",
            "permissions": []
        }
    },
    {
        "model": "auth.group",
        "pk": 2,
        "fields": {
            "name": "apiuser",
            "permissions": []
        }
    },
    {
        "model": "auth.group",
        "pk": 3,
        "fields": {
            "name": "migration",
            "permissions": []
        }
    },
    {
        "model": "app_staffing.userrole",
        "pk": 1,
        "fields": {
            "name": "admin",
            "order": 5
        }
    },
    {
        "model": "app_staffing.userrole",
        "pk": 2,
        "fields": {
            "name": "manager",
            "order": 4
        }
    },
    {
        "model": "app_staffing.userrole",
        "pk": 3,
        "fields": {
            "name": "leader",
            "order": 3
        }
    },
    {
        "model": "app_staffing.userrole",
        "pk": 4,
        "fields": {
            "name": "member",
            "order": 2
        }
    },
    {
        "model": "app_staffing.userrole",
        "pk": 5,
        "fields": {
            "name": "guest",
            "order": 1
        }
    },
    {
        "model": "app_staffing.userrole",
        "pk": 6,
        "fields": {
            "name": "master",
            "order": 6
        }
    },
    {
        "model": "app_staffing.User",
        "pk": "6dba67ff-4bb7-4210-afec-f6fbec1c5fcb",
        "fields": {
            "password": "pbkdf2_sha256$120000$US5LP9lKODvn$PAB7EELzUrVFc76DRLZgqIY1HpuuIZ/hY8dT3QBJ9CI=",
            "last_login": null,
            "is_superuser": true,
            "username": "admin",
            "user_service_id": "user_4327894789",
            "first_name": "",
            "last_name": "",
            "email": "admin@example.com",
            "email_signature": "===========\nThe admin\n===========",
            "is_staff": true,
            "is_active": true,
            "is_user_admin": true,
            "company": "3efd25d0-989a-4fba-aa8d-b91708760eb9",
            "date_joined": "2018-01-01T00:00:00Z",
            "groups": [
                1
            ],
            "user_permissions": [],
            "user_role": 1
        }
    },
    {
        "model": "app_staffing.User",
        "pk": "1957ab0f-b47c-455a-a7b7-4453cfffd05e",
        "fields": {
            "password": "pbkdf2_sha256$120000$US5LP9lKODvn$PAB7EELzUrVFc76DRLZgqIY1HpuuIZ/hY8dT3QBJ9CI=",
            "last_login": null,
            "is_superuser": false,
            "username": "apiuser",
            "user_service_id": "user_4327894790",
            "first_name": "",
            "last_name": "",
            "email": "apiuser@example.com",
            "email_signature": "***********\nA User of example.com\n***********\n",
            "is_staff": true,
            "is_active": true,
            "is_user_admin": true,
            "company": "3efd25d0-989a-4fba-aa8d-b91708760eb9",
            "date_joined": "2018-01-01T00:00:00Z",
            "groups": [
                2
            ],
            "user_permissions": [],
            "user_role": 6
        }
    }
]
