[
  {
    "model": "app_staffing.contactstat",
    "pk": "0154b60e-cef6-4122-b8c7-6d190515582b",
    "fields": {
      "company": "3efd25d0-989a-4fba-aa8d-b91708760eb1",
      "target_date": "2021-01-01",
      "jobtype_dev": 11,
      "jobtype_infra": 12,
      "jobtype_other": 13,
      "personneltype_dev": 14,
      "personneltype_infra": 15,
      "personneltype_other": 16,
      "other": 17,
      "created_time": "2019-04-10T09:14:40.795Z"
    }
  },
  {
    "model": "app_staffing.contactstat",
    "pk": "0254b60e-cef6-4122-b8c7-6d190515582b",
    "fields": {
      "company": "3efd25d0-989a-4fba-aa8d-b91708760eb1",
      "target_date": "2021-02-01",
      "jobtype_dev": 21,
      "jobtype_infra": 22,
      "jobtype_other": 23,
      "personneltype_dev": 24,
      "personneltype_infra": 25,
      "personneltype_other": 26,
      "other": 27,
      "created_time": "2019-04-10T09:14:40.795Z"
    }
  },
  {
    "model": "app_staffing.contactstat",
    "pk": "0354b60e-cef6-4122-b8c7-6d190515582b",
    "fields": {
      "company": "3efd25d0-989a-4fba-aa8d-b91708760eb1",
      "target_date": "2021-03-01",
      "jobtype_dev": 31,
      "jobtype_infra": 32,
      "jobtype_other": 33,
      "personneltype_dev": 34,
      "personneltype_infra": 35,
      "personneltype_other": 36,
      "other": 37,
      "created_time": "2019-04-10T09:14:40.795Z"
    }
  },
  {
    "model": "app_staffing.contactstat",
    "pk": "0454b60e-cef6-4122-b8c7-6d190515582b",
    "fields": {
      "company": "3efd25d0-989a-4fba-aa8d-b91708760eb1",
      "target_date": "2021-04-01",
      "jobtype_dev": 41,
      "jobtype_infra": 42,
      "jobtype_other": 43,
      "personneltype_dev": 44,
      "personneltype_infra": 45,
      "personneltype_other": 46,
      "other": 47,
      "created_time": "2019-04-10T09:14:40.795Z"
    }
  },
  {
    "model": "app_staffing.contactstat",
    "pk": "0554b60e-cef6-4122-b8c7-6d190515582b",
    "fields": {
      "company": "3efd25d0-989a-4fba-aa8d-b91708760eb1",
      "target_date": "2021-05-01",
      "jobtype_dev": 51,
      "jobtype_infra": 52,
      "jobtype_other": 53,
      "personneltype_dev": 54,
      "personneltype_infra": 55,
      "personneltype_other": 56,
      "other": 57,
      "created_time": "2019-04-10T09:14:40.795Z"
    }
  },
  {
    "model": "app_staffing.contactstat",
    "pk": "0654b60e-cef6-4122-b8c7-6d190515582b",
    "fields": {
      "company": "3efd25d0-989a-4fba-aa8d-b91708760eb1",
      "target_date": "2021-06-01",
      "jobtype_dev": 61,
      "jobtype_infra": 62,
      "jobtype_other": 63,
      "personneltype_dev": 64,
      "personneltype_infra": 65,
      "personneltype_other": 66,
      "other": 67,
      "created_time": "2019-04-10T09:14:40.795Z"
    }
  },
  {
    "model": "app_staffing.contactstat",
    "pk": "0754b60e-cef6-4122-b8c7-6d190515582b",
    "fields": {
      "company": "3efd25d0-989a-4fba-aa8d-b91708760eb1",
      "target_date": "2021-07-01",
      "jobtype_dev": 71,
      "jobtype_infra": 72,
      "jobtype_other": 73,
      "personneltype_dev": 74,
      "personneltype_infra": 75,
      "personneltype_other": 76,
      "other": 77,
      "created_time": "2019-04-10T09:14:40.795Z"
    }
  },
  {
    "model": "app_staffing.contactstat",
    "pk": "0854b60e-cef6-4122-b8c7-6d190515582b",
    "fields": {
      "company": "3efd25d0-989a-4fba-aa8d-b91708760eb1",
      "target_date": "2021-08-01",
      "jobtype_dev": 81,
      "jobtype_infra": 82,
      "jobtype_other": 83,
      "personneltype_dev": 84,
      "personneltype_infra": 85,
      "personneltype_other": 86,
      "other": 87,
      "created_time": "2019-04-10T09:14:40.795Z"
    }
  },
  {
    "model": "app_staffing.contactstat",
    "pk": "0954b60e-cef6-4122-b8c7-6d190515582b",
    "fields": {
      "company": "3efd25d0-989a-4fba-aa8d-b91708760eb1",
      "target_date": "2021-09-01",
      "jobtype_dev": 91,
      "jobtype_infra": 92,
      "jobtype_other": 93,
      "personneltype_dev": 94,
      "personneltype_infra": 95,
      "personneltype_other": 96,
      "other": 97,
      "created_time": "2019-04-10T09:14:40.795Z"
    }
  },
  {
    "model": "app_staffing.contactstat",
    "pk": "1054b60e-cef6-4122-b8c7-6d190515582b",
    "fields": {
      "company": "3efd25d0-989a-4fba-aa8d-b91708760eb1",
      "target_date": "2021-10-01",
      "jobtype_dev": 101,
      "jobtype_infra": 102,
      "jobtype_other": 103,
      "personneltype_dev": 104,
      "personneltype_infra": 105,
      "personneltype_other": 106,
      "other": 107,
      "created_time": "2019-04-10T09:14:40.795Z"
    }
  },
  {
    "model": "app_staffing.contactstat",
    "pk": "1154b60e-cef6-4122-b8c7-6d190515582b",
    "fields": {
      "company": "3efd25d0-989a-4fba-aa8d-b91708760eb1",
      "target_date": "2021-11-01",
      "jobtype_dev": 111,
      "jobtype_infra": 112,
      "jobtype_other": 113,
      "personneltype_dev": 114,
      "personneltype_infra": 115,
      "personneltype_other": 116,
      "other": 117,
      "created_time": "2019-04-10T09:14:40.795Z"
    }
  },
  {
    "model": "app_staffing.contactstat",
    "pk": "1254b60e-cef6-4122-b8c7-6d190515582b",
    "fields": {
      "company": "3efd25d0-989a-4fba-aa8d-b91708760eb1",
      "target_date": "2021-12-01",
      "jobtype_dev": 121,
      "jobtype_infra": 122,
      "jobtype_other": 123,
      "personneltype_dev": 124,
      "personneltype_infra": 125,
      "personneltype_other": 126,
      "other": 127,
      "created_time": "2019-04-10T09:14:40.795Z"
    }
  }
]
