[
    {
      "model": "app_staffing.scheduledemailstatus",
      "pk": 1,
      "fields": {
          "name": "draft",
          "order": 1
      }
    },
    {
      "model": "app_staffing.scheduledemailstatus",
      "pk": 2,
      "fields": {
          "name": "queued",
          "order": 2
      }
    },
    { 
      "model": "app_staffing.scheduledemailstatus",
      "pk": 3,
      "fields": {
          "name": "sending",
          "order": 3
      }
    },
    {
      "model": "app_staffing.scheduledemailstatus",
      "pk": 4,
      "fields": {
          "name": "sent",
          "order": 4
      }
    },
    {
      "model": "app_staffing.scheduledemailstatus",
      "pk": 5,
      "fields": {
          "name": "error",
          "order": 5
      }
    },
    {
      "model": "app_staffing.scheduledemailstatus",
      "pk": 6,
      "fields": {
          "name": "timeout",
          "order": 6
      }
    },
    {
      "model": "app_staffing.scheduledemailsendtype",
      "pk": 1,
      "fields": {
          "name": "job",
          "order": 1
      }
    },
    {
      "model": "app_staffing.scheduledemailsendtype",
      "pk": 2,
      "fields": {
          "name": "personnel",
          "order": 2
      }
    },
    {
      "model": "app_staffing.scheduledemailsendtype",
      "pk": 3,
      "fields": {
          "name": "other",
          "order": 3
      }
    }
  ]
  