[
    {
      "model": "app_staffing.skillpreference",
      "pk": "185c2a9b-ec13-4194-bd85-386de64f5ee2",
      "fields": {
        "name": "dev_youken"
      }
    },
    {
      "model": "app_staffing.skillpreference",
      "pk": "185c2a9b-ec13-4194-bd85-386de64f5ee3",
      "fields": {
        "name": "dev_kihon"
      }
    },
    {
      "model": "app_staffing.skillpreference",
      "pk": "185c2a9b-ec13-4194-bd85-386de64f5ee4",
      "fields": {
        "name": "dev_syousai"
      }
    },
    {
      "model": "app_staffing.skillpreference",
      "pk": "185c2a9b-ec13-4194-bd85-386de64f5ee5",
      "fields": {
        "name": "dev_seizou"
      }
    },
    {
      "model": "app_staffing.skillpreference",
      "pk": "185c2a9b-ec13-4194-bd85-386de64f5ee6",
      "fields": {
        "name": "dev_test"
      }
    },
    {
      "model": "app_staffing.skillpreference",
      "pk": "185c2a9b-ec13-4194-bd85-386de64f5ee7",
      "fields": {
        "name": "dev_hosyu"
      }
    },
    {
      "model": "app_staffing.skillpreference",
      "pk": "185c2a9b-ec13-4194-bd85-386de64f5ee8",
      "fields": {
        "name": "dev_beginner"
      }
    },
    {
      "model": "app_staffing.skillpreference",
      "pk": "5737b0a8-5a99-4254-8798-b8c4a475cc22",
      "fields": {
        "name": "infra_youken"
      }
    },
    {
      "model": "app_staffing.skillpreference",
      "pk": "5737b0a8-5a99-4254-8798-b8c4a475cc23",
      "fields": {
        "name": "infra_kihon"
      }
    },
    {
      "model": "app_staffing.skillpreference",
      "pk": "5737b0a8-5a99-4254-8798-b8c4a475cc24",
      "fields": {
        "name": "infra_syousai"
      }
    },
    {
      "model": "app_staffing.skillpreference",
      "pk": "5737b0a8-5a99-4254-8798-b8c4a475cc25",
      "fields": {
        "name": "infra_kouchiku"
      }
    },
    {
      "model": "app_staffing.skillpreference",
      "pk": "5737b0a8-5a99-4254-8798-b8c4a475cc26",
      "fields": {
        "name": "infra_test"
      }
    },
    {
      "model": "app_staffing.skillpreference",
      "pk": "5737b0a8-5a99-4254-8798-b8c4a475cc27",
      "fields": {
        "name": "infra_kanshi"
      }
    },
    {
      "model": "app_staffing.skillpreference",
      "pk": "5737b0a8-5a99-4254-8798-b8c4a475cc28",
      "fields": {
        "name": "infra_hosyu"
      }
    },
    {
      "model": "app_staffing.skillpreference",
      "pk": "5737b0a8-5a99-4254-8798-b8c4a475cc29",
      "fields": {
        "name": "infra_beginner"
      }
    }
  ]
