[
  {
    "model": "app_staffing.typepreference",
    "pk": "185c2a9b-ec13-4194-bd85-386de64f5ee2",
    "fields": {
      "name": "dev_designer"
    }
  },
  {
    "model": "app_staffing.typepreference",
    "pk": "185c2a9b-ec13-4194-bd85-386de64f5ee3",
    "fields": {
      "name": "dev_front"
    }
  },
  {
    "model": "app_staffing.typepreference",
    "pk": "185c2a9b-ec13-4194-bd85-386de64f5ee4",
    "fields": {
      "name": "dev_server"
    }
  },
  {
    "model": "app_staffing.typepreference",
    "pk": "185c2a9b-ec13-4194-bd85-386de64f5ee5",
    "fields": {
      "name": "dev_pm"
    }
  },
  {
    "model": "app_staffing.typepreference",
    "pk": "185c2a9b-ec13-4194-bd85-386de64f5ee6",
    "fields": {
      "name": "dev_other"
    }
  },
  {
    "model": "app_staffing.typepreference",
    "pk": "5737b0a8-5a99-4254-8798-b8c4a475cc22",
    "fields": {
      "name": "infra_server"
    }
  },
  {
    "model": "app_staffing.typepreference",
    "pk": "5737b0a8-5a99-4254-8798-b8c4a475cc23",
    "fields": {
      "name": "infra_network"
    }
  },
  {
    "model": "app_staffing.typepreference",
    "pk": "5737b0a8-5a99-4254-8798-b8c4a475cc24",
    "fields": {
      "name": "infra_database"
    }
  },
  {
    "model": "app_staffing.typepreference",
    "pk": "5737b0a8-5a99-4254-8798-b8c4a475cc25",
    "fields": {
      "name": "infra_security"
    }
  },
  {
    "model": "app_staffing.typepreference",
    "pk": "5737b0a8-5a99-4254-8798-b8c4a475cc26",
    "fields": {
      "name": "infra_sys"
    }
  },
  {
    "model": "app_staffing.typepreference",
    "pk": "5737b0a8-5a99-4254-8798-b8c4a475cc27",
    "fields": {
      "name": "infra_other"
    }
  },
  {
    "model": "app_staffing.typepreference",
    "pk": "5737b0a8-5a99-4254-8798-b8c4a475cc28",
    "fields": {
      "name": "other_eigyo"
    }
  },
  {
    "model": "app_staffing.typepreference",
    "pk": "5737b0a8-5a99-4254-8798-b8c4a475cc32",
    "fields": {
      "name": "other_kichi"
    }
  },
  {
    "model": "app_staffing.typepreference",
    "pk": "5737b0a8-5a99-4254-8798-b8c4a475cc42",
    "fields": {
      "name": "other_support"
    }
  },
  {
    "model": "app_staffing.typepreference",
    "pk": "5737b0a8-5a99-4254-8798-b8c4a475cc52",
    "fields": {
      "name": "other_other"
    }
  }
]
